I-PER	count	probability
I	11	0.12222222222222222
E	10	0.1111111111111111
O	8	0.08888888888888889
L	8	0.08888888888888889
R	7	0.07777777777777778
S	5	0.05555555555555555
Latimer	4	0.044444444444444446
T	4	0.044444444444444446
M	3	0.03333333333333333
A	3	0.03333333333333333
Deville's	2	0.022222222222222223
H	2	0.022222222222222223
B	2	0.022222222222222223
Lively	2	0.022222222222222223
G	2	0.022222222222222223
W	2	0.022222222222222223
Scarazzo	1	0.011111111111111112
Hill	1	0.011111111111111112
Helwig	1	0.011111111111111112
Devil	1	0.011111111111111112
U	1	0.011111111111111112
Smith	1	0.011111111111111112
Gross	1	0.011111111111111112
D	1	0.011111111111111112
C	1	0.011111111111111112
N	1	0.011111111111111112
Obrian	1	0.011111111111111112
Weiss	1	0.011111111111111112
Thomas	1	0.011111111111111112
Maier	1	0.011111111111111112
V	1	0.011111111111111112
